{
    "xfw_prefix": "xfw_native",

    "xfw_id": "com.modxvm.xfw.native",
    "xfw_name": "XFW Native components",
    "xfw_description": "C/C++ components for XVM Framework",

    "xfw_dependencies": [],
    "xfw_features": ["native","python"],
    "xfw_features_provide": ["native"],

    "xfw_url": "https://modxvm.com/",
    "xfw_url_update": "https://modxvm.com/",

    "xfw_wot_versions": ["1.18.0.0"],
    "xfw_wot_versions_strategy": "allow_newer",

    "xfw_architecture": ["x86_32", "x86_64"]
}